{
  "MANDT": "001",
  "SCENARIO": "OX_AM_01",
  "VIEWNAME": "dispOperGridPanel",
  "VIEWTYPE": "List",
  "VIEWCOLUMNS": [
    {
      "MANDT": "001",
      "SCENARIO": "OX_AM_01",
      "VIEWNAME": "dispOperGridPanel",
      "COLUMN_SEQ": "000001",
      "UIEDITOR_TYPE": "icon",
      "VISIBLE": "X",
      "VISIBLE_IN_SMALL": "X",
      "COLUMN_WIDTH": "80",
      "USE_RENDERER": "X",
      "RENDERER": "dispOperActionColumnRenderer",
      "RENDERER_SMALL": "dispOperActionColumnRenderer"
    },
    {
      "MANDT": "001",
      "SCENARIO": "OX_AM_01",
      "VIEWNAME": "dispOperGridPanel",
      "COLUMN_NAME": "operation",
      "COLUMN_SEQ": "000002",
      "DATAINDEX": "vornr",
      "UIEDITOR_TYPE": "text",
      "VISIBLE": "X",
      "VISIBLE_IN_SMALL": "X",
      "SORTABLE": "X",
      "RESIZABLE": "X",
      "COLUMN_WIDTH": "1*",
      "USE_RENDERER": "X",
      "RENDERER": "dispOperOperationColumnRenderer",
      "RENDERER_SMALL": "dispOperOperationColumnRenderer"
    },
    {
      "MANDT": "001",
      "SCENARIO": "OX_AM_01",
      "VIEWNAME": "dispOperGridPanel",
      "COLUMN_NAME": "plannedDate",
      "COLUMN_SEQ": "000004",
      "UIEDITOR_TYPE": "date",
      "VISIBLE": "X",
      "VISIBLE_IN_SMALL": "X",
      "SORTABLE": "X",
      "RESIZABLE": "X",
      "COLUMN_WIDTH": "1*",
      "USE_RENDERER": "X",
      "RENDERER": "dispOperPlannedDateColumnRenderer",
      "RENDERER_SMALL": "dispOperPlannedDateColumnRenderer"
    },
    {
      "MANDT": "001",
      "SCENARIO": "OX_AM_01",
      "VIEWNAME": "dispOperGridPanel",
      "COLUMN_NAME": "technician",
      "COLUMN_SEQ": "000005",
      "DATAINDEX": "pernr",
      "UIEDITOR_TYPE": "text",
      "VISIBLE": "X",
      "VISIBLE_IN_SMALL": "X",
      "RESIZABLE": "X",
      "COLUMN_WIDTH": "1*",
      "USE_RENDERER": "X",
      "RENDERER": "dispOperTechnicianColumnRenderer",
      "RENDERER_SMALL": "dispOperTechnicianColumnRenderer"
    },
    {
      "MANDT": "001",
      "SCENARIO": "OX_AM_01",
      "VIEWNAME": "dispOperGridPanel",
      "COLUMN_NAME": "workcenter",
      "COLUMN_SEQ": "000003",
      "DATAINDEX": "arbpl",
      "UIEDITOR_TYPE": "text",
      "VISIBLE": "X",
      "VISIBLE_IN_SMALL": "X",
      "SORTABLE": "X",
      "RESIZABLE": "X",
      "COLUMN_WIDTH": "1*",
      "USE_RENDERER": "X",
      "RENDERER": "dispOperWorkcenterColumnRenderer",
      "RENDERER_SMALL": "dispOperWorkcenterColumnRenderer"
    }
  ],
  "UPDFLAG": "X",
  "USERID": "i0060",
  "DIRTY": "0",
  "RCVTIME": "20170118112312"
}