{
  "MANDT": "001",
  "SCENARIO": "OX_AM_01",
  "VIEWNAME": "equiHistNotifGrid",
  "VIEWTYPE": "List",
  "VIEWCOLUMNS": [
    {
      "MANDT": "001",
      "SCENARIO": "OX_AM_01",
      "VIEWNAME": "equiHistNotifGrid",
      "COLUMN_SEQ": "000001",
      "UIEDITOR_TYPE": "icon",
      "VISIBLE": "X",
      "VISIBLE_IN_SMALL": "X",
      "COLUMN_WIDTH": "80",
      "USE_RENDERER": "X",
      "RENDERER": "equiHistNotifActionColumnRenderer",
      "RENDERER_SMALL": "equiHistNotifActionColumnRenderer"
    },
    {
      "MANDT": "001",
      "SCENARIO": "OX_AM_01",
      "VIEWNAME": "equiHistNotifGrid",
      "COLUMN_NAME": "notif",
      "COLUMN_SEQ": "000002",
      "DATAINDEX": "qmnum",
      "UIEDITOR_TYPE": "text",
      "VISIBLE": "X",
      "VISIBLE_IN_SMALL": "X",
      "SORTABLE": "X",
      "RESIZABLE": "X",
      "COLUMN_WIDTH": "1*",
      "USE_RENDERER": "X",
      "RENDERER": "equiHistNotifNotifColumnRenderer",
      "RENDERER_SMALL": "equiHistNotifNotifColumnRenderer"
    },
    {
      "MANDT": "001",
      "SCENARIO": "OX_AM_01",
      "VIEWNAME": "equiHistNotifGrid",
      "COLUMN_NAME": "notifType",
      "COLUMN_SEQ": "000004",
      "DATAINDEX": "qmart",
      "UIEDITOR_TYPE": "text",
      "VISIBLE": "X",
      "VISIBLE_IN_SMALL": "X",
      "SORTABLE": "X",
      "RESIZABLE": "X",
      "COLUMN_WIDTH": "1*",
      "USE_RENDERER": "X",
      "RENDERER": "equiHistNotifTypeColumnRenderer",
      "RENDERER_SMALL": "equiHistNotifTypeColumnRenderer"
    },
    {
      "MANDT": "001",
      "SCENARIO": "OX_AM_01",
      "VIEWNAME": "equiHistNotifGrid",
      "COLUMN_NAME": "status",
      "COLUMN_SEQ": "000003",
      "DATAINDEX": "system_status",
      "UIEDITOR_TYPE": "text",
      "VISIBLE": "X",
      "VISIBLE_IN_SMALL": "X",
      "SORTABLE": "X",
      "RESIZABLE": "X",
      "COLUMN_WIDTH": "1*",
      "USE_RENDERER": "X",
      "RENDERER": "equiHistNotifStatusColumnRenderer",
      "RENDERER_SMALL": "equiHistNotifStatusColumnRenderer"
    }
  ],
  "UPDFLAG": "X",
  "USERID": "i0060",
  "DIRTY": "0",
  "RCVTIME": "20170118112312"
}