{
  "MANDT": "001",
  "SCENARIO": "OX_AM_01",
  "VIEWNAME": "equiClassGridPanel",
  "VIEWTYPE": "List",
  "VIEWCOLUMNS": [
    {
      "MANDT": "001",
      "SCENARIO": "OX_AM_01",
      "VIEWNAME": "equiClassGridPanel",
      "COLUMN_SEQ": "000001",
      "UIEDITOR_TYPE": "icon",
      "VISIBLE": "X",
      "VISIBLE_IN_SMALL": "X",
      "COLUMN_WIDTH": "80",
      "USE_RENDERER": "X",
      "RENDERER": "equiClassActionColumnRenderer",
      "RENDERER_SMALL": "equiClassActionColumnRenderer"
    },
    {
      "MANDT": "001",
      "SCENARIO": "OX_AM_01",
      "VIEWNAME": "equiClassGridPanel",
      "COLUMN_NAME": "characteristic",
      "COLUMN_SEQ": "000002",
      "DATAINDEX": "classCharacteristic",
      "UIEDITOR_TYPE": "text",
      "VISIBLE": "X",
      "VISIBLE_IN_SMALL": "X",
      "SORTABLE": "X",
      "RESIZABLE": "X",
      "COLUMN_WIDTH": "2*",
      "USE_RENDERER": "X",
      "RENDERER": "equiClassCharacteristicColumnRenderer",
      "RENDERER_SMALL": "equiClassCharacteristicColumnRenderer"
    },
    {
      "MANDT": "001",
      "SCENARIO": "OX_AM_01",
      "VIEWNAME": "equiClassGridPanel",
      "COLUMN_NAME": "characteristicValue",
      "COLUMN_SEQ": "000003",
      "DATAINDEX": "classCharacteristicValue",
      "UIEDITOR_TYPE": "text",
      "VISIBLE": "X",
      "VISIBLE_IN_SMALL": "X",
      "SORTABLE": "X",
      "RESIZABLE": "X",
      "COLUMN_WIDTH": "1*",
      "USE_RENDERER": "X",
      "RENDERER": "equiClassCharacteristicValueColumnRenderer",
      "RENDERER_SMALL": "equiClassCharacteristicValueColumnRenderer"
    }
  ],
  "UPDFLAG": "X",
  "USERID": "i0060",
  "DIRTY": "0",
  "RCVTIME": "20170118112312"
}