{
  "MANDT": "001",
  "SCENARIO": "OX_AM_01",
  "VIEWNAME": "equiHistOrderGrid",
  "VIEWTYPE": "List",
  "VIEWCOLUMNS": [
    {
      "MANDT": "001",
      "SCENARIO": "OX_AM_01",
      "VIEWNAME": "equiHistOrderGrid",
      "COLUMN_SEQ": "000001",
      "UIEDITOR_TYPE": "icon",
      "VISIBLE": "X",
      "VISIBLE_IN_SMALL": "X",
      "COLUMN_WIDTH": "80",
      "USE_RENDERER": "X",
      "RENDERER": "equiHistOrderActionColumnRenderer",
      "RENDERER_SMALL": "equiHistOrderActionColumnRenderer"
    },
    {
      "MANDT": "001",
      "SCENARIO": "OX_AM_01",
      "VIEWNAME": "equiHistOrderGrid",
      "COLUMN_NAME": "order",
      "COLUMN_SEQ": "000002",
      "DATAINDEX": "aufnr",
      "UIEDITOR_TYPE": "text",
      "VISIBLE": "X",
      "VISIBLE_IN_SMALL": "X",
      "SORTABLE": "X",
      "RESIZABLE": "X",
      "COLUMN_WIDTH": "1*",
      "USE_RENDERER": "X",
      "RENDERER": "equiHistOrderOrderColumnRenderer",
      "RENDERER_SMALL": "equiHistOrderOrderColumnRenderer"
    },
    {
      "MANDT": "001",
      "SCENARIO": "OX_AM_01",
      "VIEWNAME": "equiHistOrderGrid",
      "COLUMN_NAME": "orderType",
      "COLUMN_SEQ": "000004",
      "DATAINDEX": "auart",
      "UIEDITOR_TYPE": "text",
      "VISIBLE": "X",
      "VISIBLE_IN_SMALL": "X",
      "SORTABLE": "X",
      "RESIZABLE": "X",
      "COLUMN_WIDTH": "1*",
      "USE_RENDERER": "X",
      "RENDERER": "equiHistOrderOrderTypeColumnRenderer",
      "RENDERER_SMALL": "equiHistOrderOrderTypeColumnRenderer"
    },
    {
      "MANDT": "001",
      "SCENARIO": "OX_AM_01",
      "VIEWNAME": "equiHistOrderGrid",
      "COLUMN_NAME": "status",
      "COLUMN_SEQ": "000003",
      "DATAINDEX": "system_status",
      "UIEDITOR_TYPE": "text",
      "VISIBLE": "X",
      "VISIBLE_IN_SMALL": "X",
      "SORTABLE": "X",
      "RESIZABLE": "X",
      "COLUMN_WIDTH": "1*",
      "USE_RENDERER": "X",
      "RENDERER": "equiHistOrderStatusColumnRenderer",
      "RENDERER_SMALL": "equiHistOrderStatusColumnRenderer"
    }
  ],
  "UPDFLAG": "X",
  "USERID": "i0060",
  "DIRTY": "0",
  "RCVTIME": "20170118112312"
}