{
		"MANDT" : "001",
		"SCENARIO" : "OX_AM_01",
		"VIEWNAME" : "goodsMovementListGridPanel",
		"VIEWTYPE" : "List",
		"VIEWCOLUMNS" : [{
				"MANDT" : "001",
				"SCENARIO" : "OX_AM_01",
				"VIEWNAME" : "goodsMovementListGridPanel",
				"COLUMN_NAME" : "position",
				"COLUMN_SEQ" : "1",
				"DATAINDEX" : "ebelp",
				"UIEDITOR_TYPE" : "text",
				"VISIBLE" : "X",
				"VISIBLE_IN_SMALL" : "X",
				"SORTABLE" : "X",
				"RESIZABLE" : "X",
				"COLUMN_WIDTH" : "1*",
				"USE_RENDERER" : "X",
				"RENDERER" : "goodsMovementPositionColumnRenderer",
				"RENDERER_SMALL" : "goodsMovementPositionColumnRenderer"
			}, {
			"MANDT" : "001",
			"SCENARIO" : "OX_AM_01",
			"VIEWNAME" : "goodsMovementListGridPanel",
			"COLUMN_NAME" : "material",
			"COLUMN_SEQ" : "2",
			"DATAINDEX" : "matnr",
			"UIEDITOR_TYPE" : "text",
			"VISIBLE" : "X",
			"VISIBLE_IN_SMALL" : "X",
			"SORTABLE" : "X",
			"RESIZABLE" : "X",
			"COLUMN_WIDTH" : "1*",
			"USE_RENDERER" : "X",
			"RENDERER" : "goodsMovementMaterialColumnRenderer",
			"RENDERER_SMALL" : "goodsMovementMaterialColumnRenderer"
		}, {
			"MANDT" : "001",
			"SCENARIO" : "OX_AM_01",
			"VIEWNAME" : "goodsMovementListGridPanel",
			"COLUMN_NAME" : "menge",
			"COLUMN_SEQ" : "3",
			"DATAINDEX" : "menge",
			"UIEDITOR_TYPE" : "text",
			"VISIBLE" : "X",
			"VISIBLE_IN_SMALL" : "X",
			"SORTABLE" : "X",
			"RESIZABLE" : "X",
			"COLUMN_WIDTH" : "1*",
			"USE_RENDERER" : "X",
			"RENDERER" : "goodsMovementMengeColumnRenderer",
			"RENDERER_SMALL" : "goodsMovementMengeColumnRenderer"
		}
		]
}