{
  "MANDT": "001",
  "SCENARIO": "OX_AM_01",
  "VIEWNAME": "inventoryGridPanel",
  "VIEWTYPE": "List",
  "VIEWCOLUMNS": [
    {
      "MANDT": "001",
      "SCENARIO": "OX_AM_01",
      "VIEWNAME": "inventoryGridPanel",
      "COLUMN_SEQ": "000001",
      "UIEDITOR_TYPE": "icon",
      "VISIBLE": "X",
      "VISIBLE_IN_SMALL": "X",
      "COLUMN_WIDTH": "80",
      "USE_RENDERER": "X",
      "RENDERER": "inventoryActionColumnRenderer",
      "RENDERER_SMALL": "inventoryActionColumnRenderer"
    },
    {
      "MANDT": "001",
      "SCENARIO": "OX_AM_01",
      "VIEWNAME": "inventoryGridPanel",
      "COLUMN_NAME": "inventoryDocument",
      "COLUMN_SEQ": "000002",
      "DATAINDEX": "physinventory",
      "UIEDITOR_TYPE": "text",
      "VISIBLE": "X",
      "VISIBLE_IN_SMALL": "X",
      "SORTABLE": "X",
      "SEARCHABLE": "X",
      "RESIZABLE": "X",
      "COLUMN_WIDTH": "1*",
      "USE_RENDERER": "X",
      "RENDERER": "inventoryInventoryDocumentColumnRenderer",
      "RENDERER_SMALL": "inventoryInventoryDocumentColumnRenderer",
      "FILTER_DESC_ID": "inventoryDocument"
    },
    {
      "MANDT": "001",
      "SCENARIO": "OX_AM_01",
      "VIEWNAME": "inventoryGridPanel",
      "COLUMN_NAME": "plant",
      "COLUMN_SEQ": "000003",
      "DATAINDEX": "plant",
      "UIEDITOR_TYPE": "text",
      "VISIBLE": "X",
      "VISIBLE_IN_SMALL": "X",
      "SORTABLE": "X",
      "SEARCHABLE": "X",
      "RESIZABLE": "X",
      "COLUMN_WIDTH": "1*",
      "USE_RENDERER": "X",
      "RENDERER": "inventoryPlantColumnRenderer",
      "RENDERER_SMALL": "inventoryPlantColumnRenderer",
      "FILTER_DESC_ID": "plant"
    },
    {
      "MANDT": "001",
      "SCENARIO": "OX_AM_01",
      "VIEWNAME": "inventoryGridPanel",
      "COLUMN_NAME": "scheduledDate",
      "COLUMN_SEQ": "000005",
      "DATAINDEX": "plan",
      "UIEDITOR_TYPE": "date",
      "VISIBLE": "X",
      "VISIBLE_IN_SMALL": "X",
      "SORTABLE": "X",
      "SEARCHABLE": "X",
      "COLUMN_WIDTH": "125",
      "USE_RENDERER": "X",
      "RENDERER": "inventoryScheduledDateColumnRenderer",
      "RENDERER_SMALL": "inventoryScheduledDateColumnRenderer",
      "FILTER_DESC_ID": "scheduledDate"
    },
    {
      "MANDT": "001",
      "SCENARIO": "OX_AM_01",
      "VIEWNAME": "inventoryGridPanel",
      "COLUMN_NAME": "status",
      "COLUMN_SEQ": "000006",
      "DATAINDEX": "items",
      "UIEDITOR_TYPE": "text",
      "VISIBLE": "X",
      "VISIBLE_IN_SMALL": "X",
      "SORTABLE": "X",
      "SEARCHABLE": "X",
      "COLUMN_WIDTH": "130",
      "USE_RENDERER": "X",
      "RENDERER": "inventoryStatusColumnRenderer",
      "RENDERER_SMALL": "inventoryStatusColumnRenderer",
      "FILTER_DESC_ID": "status"
    },
    {
      "MANDT": "001",
      "SCENARIO": "OX_AM_01",
      "VIEWNAME": "inventoryGridPanel",
      "COLUMN_NAME": "storLoc",
      "COLUMN_SEQ": "000004",
      "DATAINDEX": "stgeLoc",
      "UIEDITOR_TYPE": "text",
      "VISIBLE": "X",
      "VISIBLE_IN_SMALL": "X",
      "SORTABLE": "X",
      "SEARCHABLE": "X",
      "RESIZABLE": "X",
      "COLUMN_WIDTH": "1*",
      "USE_RENDERER": "X",
      "RENDERER": "inventoryStorLocColumnRenderer",
      "RENDERER_SMALL": "inventoryStorLocColumnRenderer",
      "FILTER_DESC_ID": "storLoc"
    }
  ],
  "UPDFLAG": "X",
  "USERID": "i0060",
  "DIRTY": "0",
  "RCVTIME": "20170118112312"
}