{
  "MANDT": "001",
  "SCENARIO": "OX_AM_01",
  "VIEWNAME": "measPointGridPanel",
  "VIEWTYPE": "List",
  "VIEWCOLUMNS": [
    {
      "MANDT": "001",
      "SCENARIO": "OX_AM_01",
      "VIEWNAME": "measPointGridPanel",
      "COLUMN_SEQ": "000001",
      "UIEDITOR_TYPE": "icon",
      "VISIBLE": "X",
      "VISIBLE_IN_SMALL": "X",
      "COLUMN_WIDTH": "80",
      "USE_RENDERER": "X",
      "RENDERER": "measPointActionColumnRenderer",
      "RENDERER_SMALL": "measPointActionColumnRenderer"
    },
    {
      "MANDT": "001",
      "SCENARIO": "OX_AM_01",
      "VIEWNAME": "measPointGridPanel",
      "COLUMN_NAME": "lastMeasValue",
      "COLUMN_SEQ": "000005",
      "DATAINDEX": "\"\"\"\"\"\"",
      "UIEDITOR_TYPE": "text",
      "VISIBLE": "X",
      "VISIBLE_IN_SMALL": "X",
      "SORTABLE": "X",
      "SEARCHABLE": "X",
      "RESIZABLE": "X",
      "COLUMN_WIDTH": "1*",
      "USE_RENDERER": "X",
      "RENDERER": "measPointLastMeasValueColumnRenderer",
      "RENDERER_SMALL": "measPointLastMeasValueColumnRenderer"
    },
    {
      "MANDT": "001",
      "SCENARIO": "OX_AM_01",
      "VIEWNAME": "measPointGridPanel",
      "COLUMN_NAME": "measIndicator",
      "COLUMN_SEQ": "000004",
      "DATAINDEX": "\"\"\"\"\"\"",
      "UIEDITOR_TYPE": "text",
      "VISIBLE": "X",
      "VISIBLE_IN_SMALL": "X",
      "SORTABLE": "X",
      "SEARCHABLE": "X",
      "RESIZABLE": "X",
      "COLUMN_WIDTH": "1*",
      "USE_RENDERER": "X",
      "RENDERER": "measPointMeasIndicatorColumnRenderer",
      "RENDERER_SMALL": "measPointMeasIndicatorColumnRenderer",
      "FILTER_DESC_ID": "shorttext, sortField, funcLoc"
    },
    {
      "MANDT": "001",
      "SCENARIO": "OX_AM_01",
      "VIEWNAME": "measPointGridPanel",
      "COLUMN_NAME": "measPoint",
      "COLUMN_SEQ": "000002",
      "DATAINDEX": "\"\"\"\"\"\"",
      "UIEDITOR_TYPE": "text",
      "VISIBLE": "X",
      "VISIBLE_IN_SMALL": "X",
      "SORTABLE": "X",
      "SEARCHABLE": "X",
      "RESIZABLE": "X",
      "COLUMN_WIDTH": "1*",
      "USE_RENDERER": "X",
      "RENDERER": "measPointMeasPointColumnRenderer",
      "RENDERER_SMALL": "measPointMeasPointColumnRenderer"
    },
    {
      "MANDT": "001",
      "SCENARIO": "OX_AM_01",
      "VIEWNAME": "measPointGridPanel",
      "COLUMN_NAME": "techObject",
      "COLUMN_SEQ": "000003",
      "DATAINDEX": "\"\"\"\"\"\"",
      "UIEDITOR_TYPE": "text",
      "VISIBLE": "X",
      "VISIBLE_IN_SMALL": "X",
      "SORTABLE": "X",
      "SEARCHABLE": "X",
      "RESIZABLE": "X",
      "COLUMN_WIDTH": "1*",
      "USE_RENDERER": "X",
      "RENDERER": "measPointTechObjectColumnRenderer",
      "RENDERER_SMALL": "measPointTechObjectColumnRenderer",
      "FILTER_DESC_ID": "equipmentNumber, equipment"
    }
  ],
  "UPDFLAG": "X",
  "USERID": "i0060",
  "DIRTY": "0",
  "RCVTIME": "20170118112312"
}