{
  "MANDT": "001",
  "SCENARIO": "OX_AM_01",
  "VIEWNAME": "notifGridPanel",
  "VIEWTYPE": "List",
  "VIEWCOLUMNS": [
    {
      "MANDT": "001",
      "SCENARIO": "OX_AM_01",
      "VIEWNAME": "notifGridPanel",
      "COLUMN_SEQ": "000001",
      "UIEDITOR_TYPE": "icon",
      "VISIBLE": "X",
      "VISIBLE_IN_SMALL": "X",
      "COLUMN_WIDTH": "80",
      "USE_RENDERER": "X",
      "RENDERER": "notifActionColumnRenderer",
      "RENDERER_SMALL": "notifActionColumnRenderer",
      "FILTER_DESC_ID": "notif"
    },
    {
      "MANDT": "001",
      "SCENARIO": "OX_AM_01",
      "VIEWNAME": "notifGridPanel",
      "COLUMN_NAME": "Maps",
      "COLUMN_SEQ": "000006",
      "DATAINDEX": "maps",
      "BUSOBJ_FIELDNAME": "maps",
      "UIEDITOR_TYPE": "icon",
      "VISIBLE": "X",
      "VISIBLE_IN_SMALL": "X",
      "COLUMN_WIDTH": "80",
      "USE_RENDERER": "X",
      "RENDERER": "notifMapsColumnRenderer",
      "RENDERER_SMALL": "notifMapsColumnRenderer",
      "CLICK_HANDLER": "notifMapsColumnHandler"
    },
    {
      "MANDT": "001",
      "SCENARIO": "OX_AM_01",
      "VIEWNAME": "notifGridPanel",
      "COLUMN_NAME": "address",
      "COLUMN_SEQ": "000005",
      "DATAINDEX": "postalCode",
      "BUSOBJ_FIELDNAME": "postalCode",
      "UIEDITOR_TYPE": "text",
      "VISIBLE": "X",
      "VISIBLE_IN_SMALL": "X",
      "SORTABLE": "X",
      "SEARCHABLE": "X",
      "RESIZABLE": "X",
      "USE_RENDERER": "X",
      "RENDERER": "notifAddressColumnRenderer",
      "RENDERER_SMALL": "notifAddressColumnRenderer",
      "FILTERABLE": "X",
      "FILTER_POS": "4",
      "FILTER_DESC_ID": "city, zipCode"
    },
    {
      "MANDT": "001",
      "SCENARIO": "OX_AM_01",
      "VIEWNAME": "notifGridPanel",
      "COLUMN_NAME": "date",
      "COLUMN_SEQ": "000003",
      "DATAINDEX": "strdt",
      "BUSOBJ_FIELDNAME": "strdt",
      "UIEDITOR_TYPE": "date",
      "VISIBLE": "X",
      "VISIBLE_IN_SMALL": "X",
      "SORTABLE": "X",
      "SEARCHABLE": "X",
      "SEARCH_POSITION": "000001",
      "COLUMN_WIDTH": "125",
      "USE_RENDERER": "X",
      "RENDERER": "notifDateColumnRenderer",
      "RENDERER_SMALL": "defaultRenderer",
      "FILTERABLE": "X",
      "FILTER_POS": "1",
      "FILTER_DESC_ID": "date"
    },
    {
      "MANDT": "001",
      "SCENARIO": "OX_AM_01",
      "VIEWNAME": "notifGridPanel",
      "COLUMN_NAME": "notif",
      "COLUMN_SEQ": "000002",
      "DATAINDEX": "qmnum",
      "BUSOBJ_FIELDNAME": "qmart",
      "BUSOBJ_FIELDNAME2": "qmnum",
      "BUSOBJ_FIELDNAME3": "qmtxt",
      "UIEDITOR_TYPE": "text",
      "VISIBLE": "X",
      "VISIBLE_IN_SMALL": "X",
      "SORTABLE": "X",
      "SEARCHABLE": "X",
      "SEARCH_POSITION": "000002",
      "RESIZABLE": "X",
      "COLUMN_WIDTH": "1*",
      "USE_RENDERER": "X",
      "RENDERER": "notifNotifColumnRenderer",
      "RENDERER_SMALL": "defaultRenderer",
      "FILTERABLE": "X",
      "FILTER_POS": "9",
      "FILTER_DESC_ID": "notifNumber, shorttext, orderNum"
    },
    {
      "MANDT": "001",
      "SCENARIO": "OX_AM_01",
      "VIEWNAME": "notifGridPanel",
      "COLUMN_NAME": "techObject",
      "COLUMN_SEQ": "000004",
      "DATAINDEX": "equnr",
      "UIEDITOR_TYPE": "text",
      "VISIBLE": "X",
      "VISIBLE_IN_SMALL": "X",
      "SORTABLE": "X",
      "SEARCHABLE": "X",
      "SEARCH_POSITION": "000005",
      "RESIZABLE": "X",
      "USE_RENDERER": "X",
      "RENDERER": "techObjectColumnRenderer",
      "RENDERER_SMALL": "techObjectColumnRenderer",
      "FILTERABLE": "X",
      "FILTER_POS": "5",
      "FILTER_DESC_ID": "equipment, checklist_FuncLoc, mainWorkctr, sortField"
    }
  ],
  "UPDFLAG": "X",
  "USERID": "i0060",
  "DIRTY": "0",
  "RCVTIME": "20170118112312"
}