{
  "MANDT": "001",
  "SCENARIO": "OX_AM_01",
  "VIEWNAME": "notifPartnerGrid",
  "VIEWTYPE": "List",
  "VIEWCOLUMNS": [
    {
      "MANDT": "001",
      "SCENARIO": "OX_AM_01",
      "VIEWNAME": "notifPartnerGrid",
      "COLUMN_SEQ": "000001",
      "UIEDITOR_TYPE": "icon",
      "VISIBLE": "X",
      "VISIBLE_IN_SMALL": "X",
      "COLUMN_WIDTH": "80",
      "USE_RENDERER": "X",
      "RENDERER": "notifPartnerImgColumnRenderer",
      "RENDERER_SMALL": "notifPartnerImgColumnRenderer"
    },
    {
      "MANDT": "001",
      "SCENARIO": "OX_AM_01",
      "VIEWNAME": "notifPartnerGrid",
      "COLUMN_NAME": "address",
      "COLUMN_SEQ": "000005",
      "DATAINDEX": "city1",
      "UIEDITOR_TYPE": "text",
      "VISIBLE": "X",
      "VISIBLE_IN_SMALL": "X",
      "SORTABLE": "X",
      "RESIZABLE": "X",
      "COLUMN_WIDTH": "1*",
      "USE_RENDERER": "X",
      "RENDERER": "notifPartnerAdressColumnRenderer",
      "RENDERER_SMALL": "notifPartnerAdressColumnRenderer"
    },
    {
      "MANDT": "001",
      "SCENARIO": "OX_AM_01",
      "VIEWNAME": "notifPartnerGrid",
      "COLUMN_NAME": "contact",
      "COLUMN_SEQ": "000004",
      "DATAINDEX": "telnumber",
      "UIEDITOR_TYPE": "text",
      "VISIBLE": "X",
      "VISIBLE_IN_SMALL": "X",
      "SORTABLE": "X",
      "RESIZABLE": "X",
      "COLUMN_WIDTH": "1*",
      "USE_RENDERER": "X",
      "RENDERER": "notifPartnerContactColumnRenderer",
      "RENDERER_SMALL": "notifPartnerContactColumnRenderer"
    },
    {
      "MANDT": "001",
      "SCENARIO": "OX_AM_01",
      "VIEWNAME": "notifPartnerGrid",
      "COLUMN_NAME": "maps",
      "COLUMN_SEQ": "000006",
      "DATAINDEX": "maps",
      "UIEDITOR_TYPE": "icon",
      "VISIBLE": "X",
      "VISIBLE_IN_SMALL": "X",
      "COLUMN_WIDTH": "80",
      "USE_RENDERER": "X",
      "RENDERER": "notifPartnerMapsColumn",
      "RENDERER_SMALL": "notifPartnerMapsColumn",
      "CLICK_HANDLER": "notifPartnerMapsColumnHandler"
    },
    {
      "MANDT": "001",
      "SCENARIO": "OX_AM_01",
      "VIEWNAME": "notifPartnerGrid",
      "COLUMN_NAME": "name",
      "COLUMN_SEQ": "000003",
      "DATAINDEX": "name1",
      "UIEDITOR_TYPE": "text",
      "VISIBLE": "X",
      "VISIBLE_IN_SMALL": "X",
      "SORTABLE": "X",
      "RESIZABLE": "X",
      "COLUMN_WIDTH": "1*",
      "USE_RENDERER": "X",
      "RENDERER": "notifPartnerNameColumnRenderer",
      "RENDERER_SMALL": "notifPartnerNameColumnRenderer"
    },
    {
      "MANDT": "001",
      "SCENARIO": "OX_AM_01",
      "VIEWNAME": "notifPartnerGrid",
      "COLUMN_NAME": "partnerFunction_Short",
      "COLUMN_SEQ": "000002",
      "DATAINDEX": "parvw",
      "UIEDITOR_TYPE": "text",
      "VISIBLE": "X",
      "VISIBLE_IN_SMALL": "X",
      "SORTABLE": "X",
      "COLUMN_WIDTH": "110"
    }
  ],
  "UPDFLAG": "X",
  "USERID": "i0060",
  "DIRTY": "0",
  "RCVTIME": "20170118112312"
}