{
  "MANDT": "001",
  "SCENARIO": "OX_AM_01",
  "VIEWNAME": "notifFileGridPanel",
  "VIEWTYPE": "List",
  "VIEWCOLUMNS": [
    {
      "MANDT": "001",
      "SCENARIO": "OX_AM_01",
      "VIEWNAME": "notifFileGridPanel",
      "COLUMN_SEQ": "000001",
      "UIEDITOR_TYPE": "icon",
      "VISIBLE": "X",
      "VISIBLE_IN_SMALL": "X",
      "COLUMN_WIDTH": "80",
      "USE_RENDERER": "X",
      "RENDERER": "notifFileIconColumnRenderer",
      "RENDERER_SMALL": "notifFileIconColumnRenderer"
    },
    {
      "MANDT": "001",
      "SCENARIO": "OX_AM_01",
      "VIEWNAME": "notifFileGridPanel",
      "COLUMN_NAME": "file",
      "COLUMN_SEQ": "000002",
      "DATAINDEX": "fileDescription",
      "UIEDITOR_TYPE": "text",
      "VISIBLE": "X",
      "VISIBLE_IN_SMALL": "X",
      "SORTABLE": "X",
      "RESIZABLE": "X",
      "COLUMN_WIDTH": "2*",
      "USE_RENDERER": "X",
      "RENDERER": "notifFileNameDescColumnRenderer",
      "RENDERER_SMALL": "notifFileNameDescColumnRenderer"
    },
    {
      "MANDT": "001",
      "SCENARIO": "OX_AM_01",
      "VIEWNAME": "notifFileGridPanel",
      "COLUMN_NAME": "fileStorageLocation",
      "COLUMN_SEQ": "000004",
      "DATAINDEX": "fileOrigin",
      "UIEDITOR_TYPE": "text",
      "VISIBLE": "X",
      "VISIBLE_IN_SMALL": "X",
      "SORTABLE": "X",
      "RESIZABLE": "X",
      "COLUMN_WIDTH": "100",
      "USE_RENDERER": "X",
      "RENDERER": "notifFileOriginColumnRenderer",
      "RENDERER_SMALL": "notifFileOriginColumnRenderer"
    },
    {
      "MANDT": "001",
      "SCENARIO": "OX_AM_01",
      "VIEWNAME": "notifFileGridPanel",
      "COLUMN_NAME": "typeAndSize",
      "COLUMN_SEQ": "000003",
      "DATAINDEX": "fileType",
      "UIEDITOR_TYPE": "text",
      "VISIBLE": "X",
      "VISIBLE_IN_SMALL": "X",
      "SORTABLE": "X",
      "RESIZABLE": "X",
      "COLUMN_WIDTH": "1*",
      "USE_RENDERER": "X",
      "RENDERER": "notifFileTypeSizeColumnRenderer",
      "RENDERER_SMALL": "notifFileTypeSizeColumnRenderer"
    }
  ],
  "UPDFLAG": "X",
  "USERID": "i0060",
  "DIRTY": "0",
  "RCVTIME": "20170118112312"
}