{
  "MANDT": "001",
  "SCENARIO": "OX_AM_01",
  "VIEWNAME": "objectListPageGrid",
  "VIEWTYPE": "List",
  "VIEWCOLUMNS": [
    {
      "MANDT": "001",
      "SCENARIO": "OX_AM_01",
      "VIEWNAME": "objectListPageGrid",
      "COLUMN_SEQ": "000001",
      "VISIBLE": "X",
      "VISIBLE_IN_SMALL": "X",
      "RESIZABLE": "X",
      "COLUMN_WIDTH": "0.2*"
    },
    {
      "MANDT": "001",
      "SCENARIO": "OX_AM_01",
      "VIEWNAME": "objectListPageGrid",
      "COLUMN_NAME": "equipment",
      "COLUMN_SEQ": "000003",
      "DATAINDEX": "equnr",
      "UIEDITOR_TYPE": "text",
      "VISIBLE": "X",
      "VISIBLE_IN_SMALL": "X",
      "SORTABLE": "X",
      "RESIZABLE": "X",
      "COLUMN_WIDTH": "1*"
    },
    {
      "MANDT": "001",
      "SCENARIO": "OX_AM_01",
      "VIEWNAME": "objectListPageGrid",
      "COLUMN_NAME": "notif",
      "COLUMN_SEQ": "000004",
      "DATAINDEX": "qmnum",
      "UIEDITOR_TYPE": "text",
      "VISIBLE": "X",
      "VISIBLE_IN_SMALL": "X",
      "SORTABLE": "X",
      "RESIZABLE": "X",
      "COLUMN_WIDTH": "1*"
    },
    {
      "MANDT": "001",
      "SCENARIO": "OX_AM_01",
      "VIEWNAME": "objectListPageGrid",
      "COLUMN_NAME": "operation",
      "COLUMN_SEQ": "000002",
      "DATAINDEX": "vornr",
      "UIEDITOR_TYPE": "text",
      "VISIBLE": "X",
      "VISIBLE_IN_SMALL": "X",
      "SORTABLE": "X",
      "RESIZABLE": "X",
      "COLUMN_WIDTH": "1*"
    }
  ],
  "UPDFLAG": "X",
  "USERID": "i0060",
  "DIRTY": "0",
  "RCVTIME": "20170118112312"
}