{
  "MANDT": "001",
  "SCENARIO": "OX_AM_01",
  "VIEWNAME": "orderDetailPageSDOrderItemsGridPanel",
  "VIEWTYPE": "List",
  "VIEWCOLUMNS": [
    {
      "MANDT": "001",
      "SCENARIO": "OX_AM_01",
      "VIEWNAME": "orderDetailPageSDOrderItemsGridPanel",
      "COLUMN_SEQ": "000001",
      "UIEDITOR_TYPE": "icon",
      "VISIBLE": "X",
      "VISIBLE_IN_SMALL": "X",
      "COLUMN_WIDTH": "80",
      "USE_RENDERER": "X",
      "RENDERER": "sdOrderActionColumnRenderer",
      "RENDERER_SMALL": "sdOrderActionColumnRenderer"
    },
    {
      "MANDT": "001",
      "SCENARIO": "OX_AM_01",
      "VIEWNAME": "orderDetailPageSDOrderItemsGridPanel",
      "COLUMN_NAME": "deliveryStatus",
      "COLUMN_SEQ": "000005",
      "DATAINDEX": "lfsga",
      "UIEDITOR_TYPE": "text",
      "VISIBLE": "X",
      "VISIBLE_IN_SMALL": "X",
      "SORTABLE": "X",
      "COLUMN_WIDTH": "130",
      "USE_RENDERER": "X",
      "RENDERER": "sdOrderDeliveryStatusColumnRenderer",
      "RENDERER_SMALL": "sdOrderDeliveryStatusColumnRenderer"
    },
    {
      "MANDT": "001",
      "SCENARIO": "OX_AM_01",
      "VIEWNAME": "orderDetailPageSDOrderItemsGridPanel",
      "COLUMN_NAME": "material",
      "COLUMN_SEQ": "000003",
      "DATAINDEX": "matnr",
      "UIEDITOR_TYPE": "text",
      "VISIBLE": "X",
      "VISIBLE_IN_SMALL": "X",
      "SORTABLE": "X",
      "RESIZABLE": "X",
      "COLUMN_WIDTH": "1*",
      "USE_RENDERER": "X",
      "RENDERER": "sdOrderMaterialColumnRenderer",
      "RENDERER_SMALL": "sdOrderMaterialColumnRenderer"
    },
    {
      "MANDT": "001",
      "SCENARIO": "OX_AM_01",
      "VIEWNAME": "orderDetailPageSDOrderItemsGridPanel",
      "COLUMN_NAME": "quantityUnit",
      "COLUMN_SEQ": "000004",
      "DATAINDEX": "zmeng",
      "UIEDITOR_TYPE": "text",
      "VISIBLE": "X",
      "VISIBLE_IN_SMALL": "X",
      "SORTABLE": "X",
      "COLUMN_WIDTH": "120",
      "USE_RENDERER": "X",
      "RENDERER": "sdOrderQuantityUnitColumnRenderer",
      "RENDERER_SMALL": "sdOrderQuantityUnitColumnRenderer"
    },
    {
      "MANDT": "001",
      "SCENARIO": "OX_AM_01",
      "VIEWNAME": "orderDetailPageSDOrderItemsGridPanel",
      "COLUMN_NAME": "remarks",
      "COLUMN_SEQ": "000006",
      "DATAINDEX": "arktx",
      "UIEDITOR_TYPE": "text",
      "VISIBLE": "X",
      "VISIBLE_IN_SMALL": "X",
      "SORTABLE": "X",
      "RESIZABLE": "X",
      "COLUMN_WIDTH": "2*",
      "USE_RENDERER": "X",
      "RENDERER": "sdOrderRemarksColumnRenderer",
      "RENDERER_SMALL": "sdOrderRemarksColumnRenderer"
    },
    {
      "MANDT": "001",
      "SCENARIO": "OX_AM_01",
      "VIEWNAME": "orderDetailPageSDOrderItemsGridPanel",
      "COLUMN_NAME": "sdOrderPosition",
      "COLUMN_SEQ": "000002",
      "DATAINDEX": "bstnk",
      "UIEDITOR_TYPE": "text",
      "VISIBLE": "X",
      "VISIBLE_IN_SMALL": "X",
      "SORTABLE": "X",
      "COLUMN_WIDTH": "140",
      "USE_RENDERER": "X",
      "RENDERER": "sdOrderPositionColumnRenderer",
      "RENDERER_SMALL": "sdOrderPositionColumnRenderer"
    }
  ],
  "UPDFLAG": "X",
  "USERID": "i0060",
  "DIRTY": "0",
  "RCVTIME": "20170118112312"
}