{
  "MANDT": "001",
  "SCENARIO": "OX_AM_01",
  "VIEWNAME": "orderTimeConfPanel",
  "VIEWTYPE": "List",
  "VIEWCOLUMNS": [
    {
      "MANDT": "001",
      "SCENARIO": "OX_AM_01",
      "VIEWNAME": "orderTimeConfPanel",
      "COLUMN_SEQ": "000001",
      "UIEDITOR_TYPE": "icon",
      "VISIBLE": "X",
      "VISIBLE_IN_SMALL": "X",
      "COLUMN_WIDTH": "80",
      "USE_RENDERER": "X",
      "RENDERER": "orderTimeConfActionColumnRenderer",
      "RENDERER_SMALL": "orderTimeConfActionColumnRenderer"
    },
    {
      "MANDT": "001",
      "SCENARIO": "OX_AM_01",
      "VIEWNAME": "orderTimeConfPanel",
      "COLUMN_NAME": "accountIndication",
      "COLUMN_SEQ": "000004",
      "DATAINDEX": "bemot",
      "UIEDITOR_TYPE": "text",
      "VISIBLE": "X",
      "VISIBLE_IN_SMALL": "X",
      "SORTABLE": "X",
      "RESIZABLE": "X",
      "COLUMN_WIDTH": "1*",
      "USE_RENDERER": "X",
      "RENDERER": "orderTimeConfAccountIndicationColumnRenderer",
      "RENDERER_SMALL": "orderTimeConfAccountIndicationColumnRenderer"
    },
    {
      "MANDT": "001",
      "SCENARIO": "OX_AM_01",
      "VIEWNAME": "orderTimeConfPanel",
      "COLUMN_NAME": "activityType",
      "COLUMN_SEQ": "000003",
      "DATAINDEX": "learr",
      "UIEDITOR_TYPE": "text",
      "VISIBLE": "X",
      "VISIBLE_IN_SMALL": "X",
      "SORTABLE": "X",
      "RESIZABLE": "X",
      "COLUMN_WIDTH": "1*",
      "USE_RENDERER": "X",
      "RENDERER": "orderTimeConfActivityTypeColumnRenderer",
      "RENDERER_SMALL": "orderTimeConfActivityTypeColumnRenderer"
    },
    {
      "MANDT": "001",
      "SCENARIO": "OX_AM_01",
      "VIEWNAME": "orderTimeConfPanel",
      "COLUMN_NAME": "date",
      "COLUMN_SEQ": "000005",
      "DATAINDEX": "ied",
      "UIEDITOR_TYPE": "date",
      "VISIBLE": "X",
      "VISIBLE_IN_SMALL": "X",
      "SORTABLE": "X",
      "COLUMN_WIDTH": "125",
      "USE_RENDERER": "X",
      "RENDERER": "orderTimeConfDateColumnRenderer",
      "RENDERER_SMALL": "orderTimeConfDateColumnRenderer"
    },
    {
      "MANDT": "001",
      "SCENARIO": "OX_AM_01",
      "VIEWNAME": "orderTimeConfPanel",
      "COLUMN_NAME": "finalConfirmation",
      "COLUMN_SEQ": "000007",
      "UIEDITOR_TYPE": "text",
      "VISIBLE": "X",
      "VISIBLE_IN_SMALL": "X",
      "SORTABLE": "X",
      "COLUMN_WIDTH": "160",
      "USE_RENDERER": "X",
      "RENDERER": "orderTimeConfFinalConfirmationColumnRenderer",
      "RENDERER_SMALL": "orderTimeConfFinalConfirmationColumnRenderer"
    },
    {
      "MANDT": "001",
      "SCENARIO": "OX_AM_01",
      "VIEWNAME": "orderTimeConfPanel",
      "COLUMN_NAME": "operation",
      "COLUMN_SEQ": "000002",
      "DATAINDEX": "vornr",
      "UIEDITOR_TYPE": "text",
      "VISIBLE": "X",
      "VISIBLE_IN_SMALL": "X",
      "SORTABLE": "X",
      "COLUMN_WIDTH": "100"
    },
    {
      "MANDT": "001",
      "SCENARIO": "OX_AM_01",
      "VIEWNAME": "orderTimeConfPanel",
      "COLUMN_NAME": "worktime",
      "COLUMN_SEQ": "000006",
      "DATAINDEX": "idaur",
      "UIEDITOR_TYPE": "text",
      "VISIBLE": "X",
      "VISIBLE_IN_SMALL": "X",
      "SORTABLE": "X",
      "COLUMN_WIDTH": "125",
      "USE_RENDERER": "X",
      "RENDERER": "orderTimeConfWorktimeColumnRenderer",
      "RENDERER_SMALL": "orderTimeConfWorktimeColumnRenderer"
    }
  ],
  "UPDFLAG": "X",
  "USERID": "i0060",
  "DIRTY": "0",
  "RCVTIME": "20170118112312"
}