{
  "MANDT": "001",
  "SCENARIO": "OX_AM_01",
  "VIEWNAME": "partnerGridPanel",
  "VIEWTYPE": "List",
  "VIEWCOLUMNS": [
    {
      "MANDT": "001",
      "SCENARIO": "OX_AM_01",
      "VIEWNAME": "partnerGridPanel",
      "COLUMN_SEQ": "000001",
      "UIEDITOR_TYPE": "icon",
      "VISIBLE": "X",
      "VISIBLE_IN_SMALL": "X",
      "COLUMN_WIDTH": "80",
      "USE_RENDERER": "X",
      "RENDERER": "partnerActionColumnRenderer",
      "RENDERER_SMALL": "partnerActionColumnRenderer"
    },
    {
      "MANDT": "001",
      "SCENARIO": "OX_AM_01",
      "VIEWNAME": "partnerGridPanel",
      "COLUMN_NAME": "address",
      "COLUMN_SEQ": "000005",
      "DATAINDEX": "city1",
      "UIEDITOR_TYPE": "text",
      "VISIBLE": "X",
      "VISIBLE_IN_SMALL": "X",
      "SORTABLE": "X",
      "RESIZABLE": "X",
      "COLUMN_WIDTH": "1*",
      "USE_RENDERER": "X",
      "RENDERER": "partnerAddressColumnRenderer",
      "RENDERER_SMALL": "partnerAddressColumnRenderer"
    },
    {
      "MANDT": "001",
      "SCENARIO": "OX_AM_01",
      "VIEWNAME": "partnerGridPanel",
      "COLUMN_NAME": "contact",
      "COLUMN_SEQ": "000004",
      "DATAINDEX": "telnumber",
      "UIEDITOR_TYPE": "text",
      "VISIBLE": "X",
      "VISIBLE_IN_SMALL": "X",
      "SORTABLE": "X",
      "RESIZABLE": "X",
      "COLUMN_WIDTH": "1*",
      "USE_RENDERER": "X",
      "RENDERER": "partnerContactColumnRenderer",
      "RENDERER_SMALL": "partnerContactColumnRenderer"
    },
    {
      "MANDT": "001",
      "SCENARIO": "OX_AM_01",
      "VIEWNAME": "partnerGridPanel",
      "COLUMN_NAME": "maps",
      "COLUMN_SEQ": "000006",
      "DATAINDEX": "maps",
      "UIEDITOR_TYPE": "icon",
      "VISIBLE": "X",
      "VISIBLE_IN_SMALL": "X",
      "COLUMN_WIDTH": "80",
      "USE_RENDERER": "X",
      "RENDERER": "partnerMapsColumnRenderer",
      "RENDERER_SMALL": "partnerMapsColumnRenderer",
      "CLICK_HANDLER": "partnerMapsColumnHandler"
    },
    {
      "MANDT": "001",
      "SCENARIO": "OX_AM_01",
      "VIEWNAME": "partnerGridPanel",
      "COLUMN_NAME": "name",
      "COLUMN_SEQ": "000003",
      "DATAINDEX": "name1",
      "UIEDITOR_TYPE": "text",
      "VISIBLE": "X",
      "VISIBLE_IN_SMALL": "X",
      "SORTABLE": "X",
      "RESIZABLE": "X",
      "COLUMN_WIDTH": "1*",
      "USE_RENDERER": "X",
      "RENDERER": "partnerNameColumnRenderer",
      "RENDERER_SMALL": "partnerNameColumnRenderer"
    },
    {
      "MANDT": "001",
      "SCENARIO": "OX_AM_01",
      "VIEWNAME": "partnerGridPanel",
      "COLUMN_NAME": "partnerFunction_Short",
      "COLUMN_SEQ": "000002",
      "DATAINDEX": "parvw",
      "UIEDITOR_TYPE": "text",
      "VISIBLE": "X",
      "VISIBLE_IN_SMALL": "X",
      "SORTABLE": "X",
      "COLUMN_WIDTH": "110"
    }
  ],
  "UPDFLAG": "X",
  "USERID": "i0060",
  "DIRTY": "0",
  "RCVTIME": "20170118112312"
}