{
  "MANDT": "001",
  "SCENARIO": "OX_AM_01",
  "VIEWNAME": "partnerPickerGrid",
  "VIEWTYPE": "List",
  "VIEWCOLUMNS": [
    {
      "MANDT": "001",
      "SCENARIO": "OX_AM_01",
      "VIEWNAME": "partnerPickerGrid",
      "COLUMN_NAME": "checklist_Loc",
      "COLUMN_SEQ": "000003",
      "DATAINDEX": "postlcod1",
      "UIEDITOR_TYPE": "text",
      "VISIBLE": "X",
      "VISIBLE_IN_SMALL": "X",
      "SORTABLE": "X",
      "RESIZABLE": "X",
      "COLUMN_WIDTH": "0.44*",
      "USE_RENDERER": "X",
      "RENDERER": "partnerPickerLocationColumnRenderer",
      "RENDERER_SMALL": "partnerPickerLocationColumnRenderer"
    },
    {
      "MANDT": "001",
      "SCENARIO": "OX_AM_01",
      "VIEWNAME": "partnerPickerGrid",
      "COLUMN_NAME": "name",
      "COLUMN_SEQ": "000002",
      "DATAINDEX": "name",
      "UIEDITOR_TYPE": "text",
      "VISIBLE": "X",
      "VISIBLE_IN_SMALL": "X",
      "SORTABLE": "X",
      "RESIZABLE": "X",
      "COLUMN_WIDTH": "0.44*",
      "USE_RENDERER": "X",
      "RENDERER": "partnerPickerNameColumnRenderer",
      "RENDERER_SMALL": "partnerPickerNameColumnRenderer"
    },
    {
      "MANDT": "001",
      "SCENARIO": "OX_AM_01",
      "VIEWNAME": "partnerPickerGrid",
      "COLUMN_NAME": "partner",
      "COLUMN_SEQ": "000001",
      "DATAINDEX": "parnr",
      "UIEDITOR_TYPE": "text",
      "VISIBLE": "X",
      "VISIBLE_IN_SMALL": "X",
      "SORTABLE": "X",
      "RESIZABLE": "X",
      "COLUMN_WIDTH": "0.12*",
      "USE_RENDERER": "X",
      "RENDERER": "partnerPickerPartnerColumnRenderer",
      "RENDERER_SMALL": "partnerPickerPartnerColumnRenderer"
    }
  ],
  "UPDFLAG": "X",
  "USERID": "i0060",
  "DIRTY": "0",
  "RCVTIME": "20170118112312"
}