{
  "MANDT": "001",
  "SCENARIO": "OX_AM_01",
  "VIEWNAME": "UIICP_MC001matConfGrid",
  "VIEWTYPE": "List",
  "VIEWCOLUMNS": [
    {
      "MANDT": "001",
      "SCENARIO": "OX_AM_01",
      "VIEWNAME": "UIICP_MC001matConfGrid",
      "COLUMN_SEQ": "000001",
      "UIEDITOR_TYPE": "icon",
      "VISIBLE": "X",
      "VISIBLE_IN_SMALL": "X",
      "COLUMN_WIDTH": "80",
      "USE_RENDERER": "X",
      "RENDERER": "matConfListActionColumnRenderer",
      "RENDERER_SMALL": "matConfListActionColumnRenderer"
    },
    {
      "MANDT": "001",
      "SCENARIO": "OX_AM_01",
      "VIEWNAME": "UIICP_MC001matConfGrid",
      "COLUMN_NAME": "accountIndication",
      "COLUMN_SEQ": "000004",
      "DATAINDEX": "bemot",
      "UIEDITOR_TYPE": "text",
      "VISIBLE": "X",
      "VISIBLE_IN_SMALL": "X",
      "SORTABLE": "X",
      "RESIZABLE": "X",
      "COLUMN_WIDTH": "1*",
      "USE_RENDERER": "X",
      "RENDERER": "matConfListAccIndColumnRenderer",
      "RENDERER_SMALL": "matConfListAccIndColumnRenderer"
    },
    {
      "MANDT": "001",
      "SCENARIO": "OX_AM_01",
      "VIEWNAME": "UIICP_MC001matConfGrid",
      "COLUMN_NAME": "customerNumberShort",
      "COLUMN_SEQ": "000003",
      "DATAINDEX": "plant",
      "UIEDITOR_TYPE": "text",
      "VISIBLE": "X",
      "VISIBLE_IN_SMALL": "X",
      "SORTABLE": "X",
      "COLUMN_WIDTH": "120",
      "USE_RENDERER": "X",
      "RENDERER": "matConfListKunnrColumnRenderer",
      "RENDERER_SMALL": "matConfListKunnrColumnRenderer"
    },
    {
      "MANDT": "001",
      "SCENARIO": "OX_AM_01",
      "VIEWNAME": "UIICP_MC001matConfGrid",
      "COLUMN_NAME": "date",
      "COLUMN_SEQ": "000005",
      "DATAINDEX": "isdd",
      "UIEDITOR_TYPE": "date",
      "VISIBLE": "X",
      "VISIBLE_IN_SMALL": "X",
      "SORTABLE": "X",
      "COLUMN_WIDTH": "125"
    },
    {
      "MANDT": "001",
      "SCENARIO": "OX_AM_01",
      "VIEWNAME": "UIICP_MC001matConfGrid",
      "COLUMN_NAME": "material",
      "COLUMN_SEQ": "000002",
      "DATAINDEX": "matnr",
      "UIEDITOR_TYPE": "text",
      "VISIBLE": "X",
      "VISIBLE_IN_SMALL": "X",
      "SORTABLE": "X",
      "RESIZABLE": "X",
      "COLUMN_WIDTH": "2*",
      "USE_RENDERER": "X",
      "RENDERER": "matConfListMaterialColumnRenderer",
      "RENDERER_SMALL": "matConfListMaterialColumnRenderer"
    },
    {
      "MANDT": "001",
      "SCENARIO": "OX_AM_01",
      "VIEWNAME": "UIICP_MC001matConfGrid",
      "COLUMN_NAME": "orderComponents_Qty",
      "COLUMN_SEQ": "000006",
      "DATAINDEX": "quantity",
      "UIEDITOR_TYPE": "text",
      "VISIBLE": "X",
      "VISIBLE_IN_SMALL": "X",
      "SORTABLE": "X",
      "COLUMN_WIDTH": "160",
      "USE_RENDERER": "X",
      "RENDERER": "matConfListComponents_QtyColumnRenderer",
      "RENDERER_SMALL": "matConfListComponents_QtyColumnRenderer"
    },
    {
      "MANDT": "001",
      "SCENARIO": "OX_AM_01",
      "VIEWNAME": "UIICP_MC001matConfGrid",
      "COLUMN_NAME": "plantStorLoc",
      "COLUMN_SEQ": "000007",
      "DATAINDEX": "plant",
      "UIEDITOR_TYPE": "text",
      "VISIBLE": "X",
      "VISIBLE_IN_SMALL": "X",
      "SORTABLE": "X",
      "COLUMN_WIDTH": "160",
      "USE_RENDERER": "X",
      "RENDERER": "matConfListPlantStorLocColumnRenderer",
      "RENDERER_SMALL": "matConfListPlantStorLocColumnRenderer"
    }
  ],
  "UPDFLAG": "X",
  "USERID": "i0060",
  "DIRTY": "0",
  "RCVTIME": "20170118112312"
}