{
  "MANDT": "001",
  "SCENARIO": "OX_AM_01",
  "VIEWNAME": "unplannedOperationGridPanel",
  "VIEWTYPE": "List",
  "VIEWCOLUMNS": [
    {
      "MANDT": "001",
      "SCENARIO": "OX_AM_01",
      "VIEWNAME": "unplannedOperationGridPanel",
      "COLUMN_NAME": "address",
      "COLUMN_SEQ": "000006",
      "DATAINDEX": "adrnr",
      "UIEDITOR_TYPE": "text",
      "VISIBLE": "X",
      "VISIBLE_IN_SMALL": "X",
      "SORTABLE": "X",
      "RESIZABLE": "X",
      "COLUMN_WIDTH": "1*",
      "USE_RENDERER": "X",
      "RENDERER": "unplannedOperationAddressColumnRenderer",
      "RENDERER_SMALL": "unplannedOperationAddressColumnRenderer"
    },
    {
      "MANDT": "001",
      "SCENARIO": "OX_AM_01",
      "VIEWNAME": "unplannedOperationGridPanel",
      "COLUMN_NAME": "city",
      "COLUMN_SEQ": "000005",
      "DATAINDEX": "City",
      "UIEDITOR_TYPE": "text",
      "VISIBLE": "X",
      "VISIBLE_IN_SMALL": "X",
      "SORTABLE": "X",
      "RESIZABLE": "X",
      "COLUMN_WIDTH": "0.6*",
      "USE_RENDERER": "X",
      "RENDERER": "unplannedOperationCityColumnRenderer",
      "RENDERER_SMALL": "unplannedOperationCityColumnRenderer"
    },
    {
      "MANDT": "001",
      "SCENARIO": "OX_AM_01",
      "VIEWNAME": "unplannedOperationGridPanel",
      "COLUMN_NAME": "date",
      "COLUMN_SEQ": "000002",
      "DATAINDEX": "Fsav",
      "UIEDITOR_TYPE": "date",
      "VISIBLE": "X",
      "VISIBLE_IN_SMALL": "X",
      "SORTABLE": "X",
      "COLUMN_WIDTH": "150",
      "USE_RENDERER": "X",
      "RENDERER": "unplannedOperationDateColumnRenderer",
      "RENDERER_SMALL": "unplannedOperationDateColumnRenderer"
    },
    {
      "MANDT": "001",
      "SCENARIO": "OX_AM_01",
      "VIEWNAME": "unplannedOperationGridPanel",
      "COLUMN_NAME": "funcLoc_Short",
      "COLUMN_SEQ": "000003",
      "DATAINDEX": "FuncLocDesc",
      "UIEDITOR_TYPE": "text",
      "VISIBLE": "X",
      "VISIBLE_IN_SMALL": "X",
      "SORTABLE": "X",
      "COLUMN_WIDTH": "150",
      "USE_RENDERER": "X",
      "RENDERER": "unplannedOperationFuncLoc_ShortColumnRenderer",
      "RENDERER_SMALL": "unplannedOperationFuncLoc_ShortColumnRenderer"
    },
    {
      "MANDT": "001",
      "SCENARIO": "OX_AM_01",
      "VIEWNAME": "unplannedOperationGridPanel",
      "COLUMN_NAME": "orderSlashOperation",
      "COLUMN_SEQ": "000001",
      "DATAINDEX": "Aufnr",
      "UIEDITOR_TYPE": "text",
      "VISIBLE": "X",
      "VISIBLE_IN_SMALL": "X",
      "SORTABLE": "X",
      "RESIZABLE": "X",
      "COLUMN_WIDTH": "1*",
      "USE_RENDERER": "X",
      "RENDERER": "unplannedOperationOrderSlashOperationColumnRenderer",
      "RENDERER_SMALL": "unplannedOperationOrderSlashOperationColumnRenderer"
    },
    {
      "MANDT": "001",
      "SCENARIO": "OX_AM_01",
      "VIEWNAME": "unplannedOperationGridPanel",
      "COLUMN_NAME": "zipCode",
      "COLUMN_SEQ": "000004",
      "DATAINDEX": "PostalCode",
      "UIEDITOR_TYPE": "text",
      "VISIBLE": "X",
      "VISIBLE_IN_SMALL": "X",
      "SORTABLE": "X",
      "COLUMN_WIDTH": "100",
      "USE_RENDERER": "X",
      "RENDERER": "unplannedOperationZipCodeColumnRenderer",
      "RENDERER_SMALL": "unplannedOperationZipCodeColumnRenderer"
    }
  ],
  "UPDFLAG": "X",
  "USERID": "i0060",
  "DIRTY": "0",
  "RCVTIME": "20170118112312"
}